^zad5.asm
D:\Projekty\Assemblerowe\ASM-LAB3-ZAD5\ASM-LAB3-ZAD5\Debug\zad5.obj
^zad5.asm
D:\Projekty\Assemblerowe\ASM-LAB3-ZAD5\ASM-LAB3-ZAD5\Debug\zad5.obj
^zad5.asm
D:\Projekty\Assemblerowe\ASM-LAB3-ZAD5\ASM-LAB3-ZAD5\Debug\zad5.obj
^zad5.asm
D:\Projekty\Assemblerowe\ASM-LAB3-ZAD5\ASM-LAB3-ZAD5\Debug\zad5.obj
^zad5.asm
D:\Projekty\Assemblerowe\ASM-LAB3-ZAD5\ASM-LAB3-ZAD5\Debug\zad5.obj
^zad5.asm
D:\Projekty\Assemblerowe\ASM-LAB3-ZAD5\ASM-LAB3-ZAD5\Debug\zad5.obj
^zad5.asm
D:\Projekty\Assemblerowe\ASM-LAB3-ZAD5\ASM-LAB3-ZAD5\Debug\zad5.obj
^zad5.asm
D:\Projekty\Assemblerowe\ASM-LAB3-ZAD5\ASM-LAB3-ZAD5\Debug\zad5.obj
^zad5.asm
D:\Projekty\Assemblerowe\ASM-LAB3-ZAD5\ASM-LAB3-ZAD5\Debug\zad5.obj
^zad5.asm
D:\Projekty\Assemblerowe\ASM-LAB3-ZAD5\ASM-LAB3-ZAD5\Debug\zad5.obj
^zad5.asm
D:\Projekty\Assemblerowe\ASM-LAB3-ZAD5\ASM-LAB3-ZAD5\Debug\zad5.obj
^zad5.asm
D:\Projekty\Assemblerowe\ASM-LAB3-ZAD5\ASM-LAB3-ZAD5\Debug\zad5.obj
^zad5.asm
D:\Projekty\Assemblerowe\ASM-LAB3-ZAD5\ASM-LAB3-ZAD5\Debug\zad5.obj
^zad5.asm
D:\Projekty\Assemblerowe\ASM-LAB3-ZAD5\ASM-LAB3-ZAD5\Debug\zad5.obj
^zad5.asm
D:\Projekty\Assemblerowe\ASM-LAB3-ZAD5\ASM-LAB3-ZAD5\Debug\zad5.obj
^zad5.asm
D:\Projekty\Assemblerowe\ASM-LAB3-ZAD5\ASM-LAB3-ZAD5\Debug\zad5.obj
^zad5.asm
D:\Projekty\Assemblerowe\ASM-LAB3-ZAD5\ASM-LAB3-ZAD5\Debug\zad5.obj
^zad5.asm
D:\Projekty\Assemblerowe\ASM-LAB3-ZAD5\ASM-LAB3-ZAD5\Debug\zad5.obj
^zad5.asm
D:\Projekty\Assemblerowe\ASM-LAB3-ZAD5\ASM-LAB3-ZAD5\Debug\zad5.obj
^zad5.asm
D:\Projekty\Assemblerowe\ASM-LAB3-ZAD5\ASM-LAB3-ZAD5\Debug\zad5.obj
^zad5.asm
D:\Projekty\Assemblerowe\ASM-LAB3-ZAD5\ASM-LAB3-ZAD5\Debug\zad5.obj
^zad5.asm
D:\Projekty\Assemblerowe\ASM-LAB3-ZAD5\ASM-LAB3-ZAD5\Debug\zad5.obj
^zad5.asm
D:\Projekty\Assemblerowe\ASM-LAB3-ZAD5\ASM-LAB3-ZAD5\Debug\zad5.obj
^zad5.asm
D:\Projekty\Assemblerowe\ASM-LAB3-ZAD5\ASM-LAB3-ZAD5\Debug\zad5.obj
^zad5.asm
D:\Projekty\Assemblerowe\ASM-LAB3-ZAD5\ASM-LAB3-ZAD5\Debug\zad5.obj
^zad5.asm
D:\Projekty\Assemblerowe\ASM-LAB3-ZAD5\ASM-LAB3-ZAD5\Debug\zad5.obj
^zad5.asm
D:\Projekty\Assemblerowe\ASM-LAB3-ZAD5\ASM-LAB3-ZAD5\Debug\zad5.obj
^zad5.asm
D:\Projekty\Assemblerowe\ASM-LAB3-ZAD5\ASM-LAB3-ZAD5\Debug\zad5.obj
^zad5.asm
D:\Projekty\Assemblerowe\ASM-LAB3-ZAD5\ASM-LAB3-ZAD5\Debug\zad5.obj
^zad5.asm
D:\Projekty\Assemblerowe\ASM-LAB3-ZAD5\ASM-LAB3-ZAD5\Debug\zad5.obj
^zad5.asm
D:\Projekty\Assemblerowe\ASM-LAB3-ZAD5\ASM-LAB3-ZAD5\Debug\zad5.obj
^zad5.asm
D:\Projekty\Assemblerowe\ASM-LAB3-ZAD5\ASM-LAB3-ZAD5\Debug\zad5.obj
^zad5.asm
D:\Projekty\Assemblerowe\ASM-LAB3-ZAD5\ASM-LAB3-ZAD5\Debug\zad5.obj
^zad5.asm
D:\Projekty\Assemblerowe\ASM-LAB3-ZAD5\ASM-LAB3-ZAD5\Debug\zad5.obj
^zad5.asm
D:\Projekty\Assemblerowe\ASM-LAB3-ZAD5\ASM-LAB3-ZAD5\Debug\zad5.obj
^zad5.asm
D:\Projekty\Assemblerowe\ASM-LAB3-ZAD5\ASM-LAB3-ZAD5\Debug\zad5.obj
^zad5.asm
D:\Projekty\Assemblerowe\ASM-LAB3-ZAD5\ASM-LAB3-ZAD5\Debug\zad5.obj
^zad5.asm
D:\Projekty\Assemblerowe\ASM-LAB3-ZAD5\ASM-LAB3-ZAD5\Debug\zad5.obj
^zad5.asm
D:\Projekty\Assemblerowe\ASM-LAB3-ZAD5\ASM-LAB3-ZAD5\Debug\zad5.obj
^zad5.asm
D:\Projekty\Assemblerowe\ASM-LAB3-ZAD5\ASM-LAB3-ZAD5\Debug\zad5.obj
^zad5.asm
D:\Projekty\Assemblerowe\ASM-LAB3-ZAD5\ASM-LAB3-ZAD5\Debug\zad5.obj
